<?xml version="1.0" standalone="no"?>
<!DOCTYPE svg PUBLIC "-//W3C//DTD SVG 20010904//EN"
 "http://www.w3.org/TR/2001/REC-SVG-20010904/DTD/svg10.dtd">
<svg version="1.0" xmlns="http://www.w3.org/2000/svg"
 width="225.000000pt" height="225.000000pt" viewBox="0 0 225.000000 225.000000"
 preserveAspectRatio="xMidYMid meet">
<metadata>
Created by potrace 1.11, written by Peter Selinger 2001-2013
</metadata>
<g transform="translate(0.000000,225.000000) scale(0.100000,-0.100000)"
fill="#000000" stroke="none">
<path d="M1627 2073 c-23 -6 -17 -24 14 -42 22 -12 28 -12 47 4 19 17 20 19 4
31 -17 14 -33 15 -65 7z"/>
<path d="M226 1992 c-3 -5 1 -9 9 -9 8 0 12 4 9 9 -3 4 -7 8 -9 8 -2 0 -6 -4
-9 -8z"/>
<path d="M283 1965 c16 -9 31 -14 35 -11 8 9 0 14 -33 21 l-30 6 28 -16z"/>
<path d="M340 1940 c0 -5 5 -10 11 -10 5 0 7 5 4 10 -3 6 -8 10 -11 10 -2 0
-4 -4 -4 -10z"/>
<path d="M367 1920 c-13 -18 -13 -25 -1 -49 7 -15 15 -36 17 -47 1 -10 6 -25
11 -32 8 -13 21 -49 170 -472 42 -118 79 -221 81 -229 3 -8 8 -12 11 -9 2 3
-2 25 -11 49 -9 24 -45 125 -79 224 -35 99 -66 187 -70 195 -3 8 -28 76 -54
150 -36 100 -45 136 -35 138 7 2 13 7 13 12 0 4 -9 6 -20 3 -15 -4 -20 0 -20
16 0 11 5 21 10 21 6 0 10 -6 10 -12 0 -10 2 -10 8 -1 5 8 21 9 56 2 53 -10
76 -4 30 7 -16 4 -32 12 -36 18 -5 8 -8 7 -8 -1 0 -7 -5 -13 -11 -13 -6 0 -9
7 -6 14 4 11 1 13 -10 9 -12 -5 -14 -3 -8 7 6 9 4 11 -5 5 -7 -4 -16 -2 -20 5
-5 9 -12 6 -23 -10z m23 -10 c0 -5 -4 -10 -10 -10 -5 0 -10 5 -10 10 0 6 5 10
10 10 6 0 10 -4 10 -10z"/>
<path d="M1973 1933 c-18 -7 -16 -23 3 -23 8 0 12 -5 8 -11 -4 -7 1 -10 11 -7
23 4 28 48 6 47 -9 0 -22 -3 -28 -6z"/>
<path d="M805 1899 c-4 -6 -5 -12 -2 -15 2 -3 7 2 10 11 7 17 1 20 -8 4z"/>
<path d="M791 1858 c0 -9 -4 -25 -7 -35 -5 -14 -4 -15 5 -7 7 7 11 22 8 35 -2
13 -5 16 -6 7z"/>
<path d="M587 1853 c-12 -12 -7 -33 7 -33 9 0 14 9 13 20 -1 20 -9 25 -20 13z"/>
<path d="M565 1778 c14 -51 33 -98 34 -82 1 14 -30 107 -39 117 -4 5 -2 -11 5
-35z"/>
<path d="M770 1769 c0 -5 5 -7 10 -4 6 3 10 8 10 11 0 2 -4 4 -10 4 -5 0 -10
-5 -10 -11z"/>
<path d="M725 1761 c-3 -5 -1 -12 5 -16 5 -3 10 1 10 9 0 18 -6 21 -15 7z"/>
<path d="M747 1696 c-3 -8 -16 -16 -29 -19 -22 -4 -22 -4 2 -5 34 -2 58 14 44
28 -8 8 -13 7 -17 -4z"/>
<path d="M511 1695 c0 -5 9 -26 20 -45 11 -19 18 -27 15 -18 -4 13 -1 15 12
11 30 -11 41 -24 48 -59 3 -19 11 -37 16 -40 9 -6 6 13 -10 55 -3 9 -1 12 6 7
7 -4 12 -2 12 4 0 7 -10 14 -21 17 l-21 6 22 12 c15 8 19 15 11 19 -6 4 -11 2
-11 -3 0 -14 -37 -14 -45 -1 -3 5 -11 7 -19 4 -7 -3 -18 5 -24 18 -6 13 -11
19 -11 13z"/>
<path d="M668 1663 c7 -3 16 -2 19 1 4 3 -2 6 -13 5 -11 0 -14 -3 -6 -6z"/>
<path d="M760 1649 c0 -5 5 -7 10 -4 6 3 10 8 10 11 0 2 -4 4 -10 4 -5 0 -10
-5 -10 -11z"/>
<path d="M840 1653 c0 -15 18 -35 23 -27 3 5 -1 15 -9 22 -8 7 -14 9 -14 5z"/>
<path d="M900 1620 c0 -5 5 -10 11 -10 5 0 7 5 4 10 -3 6 -8 10 -11 10 -2 0
-4 -4 -4 -10z"/>
<path d="M550 1592 c0 -5 7 -15 15 -22 8 -7 15 -8 15 -2 0 5 -7 15 -15 22 -8
7 -15 8 -15 2z"/>
<path d="M660 1578 c1 -7 7 -26 16 -43 l14 -30 -6 30 c-4 17 -7 36 -7 43 0 6
-4 12 -9 12 -4 0 -8 -6 -8 -12z"/>
<path d="M695 1580 c3 -5 11 -10 16 -10 6 0 7 5 4 10 -3 6 -11 10 -16 10 -6 0
-7 -4 -4 -10z"/>
<path d="M788 1565 l5 -27 -27 17 c-15 10 -29 15 -32 13 -3 -3 14 -15 37 -27
l41 -22 -7 28 c-9 37 -24 52 -17 18z"/>
<path d="M1020 1565 c0 -3 7 -14 16 -23 15 -14 16 -14 13 3 -4 17 -29 35 -29
20z"/>
<path d="M705 1550 c-3 -5 -1 -10 4 -10 6 0 11 5 11 10 0 6 -2 10 -4 10 -3 0
-8 -4 -11 -10z"/>
<path d="M885 1530 c-3 -5 1 -10 10 -10 9 0 13 5 10 10 -3 6 -8 10 -10 10 -2
0 -7 -4 -10 -10z"/>
<path d="M930 1530 c0 -5 7 -7 15 -4 8 4 15 8 15 10 0 2 -7 4 -15 4 -8 0 -15
-4 -15 -10z"/>
<path d="M717 1510 c-3 -11 -1 -20 4 -20 5 0 9 9 9 20 0 11 -2 20 -4 20 -2 0
-6 -9 -9 -20z"/>
<path d="M850 1521 c0 -5 5 -13 10 -16 6 -3 10 -2 10 4 0 5 -4 13 -10 16 -5 3
-10 2 -10 -4z"/>
<path d="M823 1485 c0 -22 2 -30 4 -17 2 12 2 30 0 40 -3 9 -5 -1 -4 -23z"/>
<path d="M760 1501 c0 -5 5 -13 10 -16 6 -3 10 -2 10 4 0 5 -4 13 -10 16 -5 3
-10 2 -10 -4z"/>
<path d="M1650 1440 c0 -48 12 -66 23 -36 8 20 -3 86 -14 86 -5 0 -9 -22 -9
-50z"/>
<path d="M1620 1425 c0 -8 5 -15 10 -15 6 0 10 7 10 15 0 8 -4 15 -10 15 -5 0
-10 -7 -10 -15z"/>
<path d="M922 1415 c0 -11 3 -29 8 -40 11 -25 11 1 0 35 -6 20 -8 21 -8 5z"/>
<path d="M598 1353 c5 -21 7 -23 10 -9 2 10 0 22 -6 28 -6 6 -7 0 -4 -19z"/>
<path d="M740 1371 c0 -5 9 -7 20 -4 11 3 20 7 20 9 0 2 -9 4 -20 4 -11 0 -20
-4 -20 -9z"/>
<path d="M626 1344 c-9 -24 -7 -52 5 -60 7 -4 9 0 5 14 -4 12 -2 30 4 42 6 11
7 20 1 20 -5 0 -12 -7 -15 -16z"/>
<path d="M841 1350 c0 -8 4 -22 9 -30 12 -18 12 -2 0 25 -6 13 -9 15 -9 5z"/>
<path d="M1960 1330 c-11 -8 -7 -9 15 -4 37 8 45 14 19 14 -10 0 -26 -5 -34
-10z"/>
<path d="M720 1320 c0 -5 5 -10 11 -10 5 0 7 5 4 10 -3 6 -8 10 -11 10 -2 0
-4 -4 -4 -10z"/>
<path d="M1990 1312 c0 -16 -33 -24 -42 -10 -6 10 -8 9 -8 -2 0 -23 20 -40 47
-40 18 0 23 6 23 24 0 14 -4 28 -10 31 -5 3 -10 2 -10 -3z"/>
<path d="M711 1285 c0 -11 4 -29 9 -40 l9 -20 0 20 c0 11 -4 29 -9 40 l-9 20
0 -20z"/>
<path d="M930 1299 c0 -4 7 -25 15 -48 8 -23 14 -45 14 -49 -3 -21 2 -42 10
-38 10 6 -9 92 -26 121 -7 11 -13 17 -13 14z"/>
<path d="M1145 1290 c-3 -5 -1 -10 4 -10 6 0 11 5 11 10 0 6 -2 10 -4 10 -3 0
-8 -4 -11 -10z"/>
<path d="M910 1224 c0 -8 5 -12 10 -9 6 4 8 11 5 16 -9 14 -15 11 -15 -7z"/>
<path d="M730 1215 c0 -5 5 -17 10 -25 5 -8 10 -10 10 -5 0 6 -5 17 -10 25 -5
8 -10 11 -10 5z"/>
<path d="M876 1211 c-7 -11 4 -70 14 -76 10 -6 0 -45 -11 -45 -21 0 -7 -19 21
-29 17 -5 30 -8 30 -6 0 2 -9 29 -21 60 -12 33 -18 66 -15 81 6 23 -7 34 -18
15z"/>
<path d="M835 1190 c-3 -6 1 -7 9 -4 18 7 21 14 7 14 -6 0 -13 -4 -16 -10z"/>
<path d="M920 1190 c0 -5 5 -10 11 -10 5 0 7 5 4 10 -3 6 -8 10 -11 10 -2 0
-4 -4 -4 -10z"/>
<path d="M700 1170 c0 -11 4 -20 9 -20 5 0 7 9 4 20 -3 11 -7 20 -9 20 -2 0
-4 -9 -4 -20z"/>
<path d="M666 1165 c4 -8 11 -15 16 -15 6 0 5 6 -2 15 -7 8 -14 15 -16 15 -2
0 -1 -7 2 -15z"/>
<path d="M735 1159 c-11 -17 -2 -18 19 -3 17 12 17 14 4 14 -9 0 -20 -5 -23
-11z"/>
<path d="M1296 1157 c3 -10 9 -15 12 -12 3 3 0 11 -7 18 -10 9 -11 8 -5 -6z"/>
<path d="M918 1153 c7 -3 16 -2 19 1 4 3 -2 6 -13 5 -11 0 -14 -3 -6 -6z"/>
<path d="M1528 1153 c7 -3 16 -2 19 1 4 3 -2 6 -13 5 -11 0 -14 -3 -6 -6z"/>
<path d="M691 1124 c0 -11 3 -14 6 -6 3 7 2 16 -1 19 -3 4 -6 -2 -5 -13z"/>
<path d="M723 1119 c4 -12 -6 -22 -31 -35 -20 -11 -39 -22 -40 -27 -2 -4 -8
-5 -13 -1 -5 3 -9 0 -9 -5 0 -6 6 -11 14 -11 32 0 23 -20 -34 -83 -33 -36 -60
-69 -60 -74 0 -4 6 -1 13 9 47 61 117 125 147 135 25 8 29 11 14 12 -31 1 -50
26 -27 36 10 5 24 7 32 6 7 -1 10 2 6 8 -3 6 -4 11 -2 11 13 0 116 -51 122
-59 9 -16 -2 -13 -30 5 -14 9 -32 14 -40 10 -9 -3 -13 -2 -10 4 10 15 -18 22
-46 11 l-24 -10 23 -7 c12 -3 22 -11 22 -16 0 -5 4 -6 10 -3 16 10 81 -6 73
-18 -4 -6 0 -8 10 -4 9 3 19 2 22 -3 4 -6 15 -10 26 -10 10 0 19 -4 19 -10 0
-5 7 -10 15 -10 8 0 15 -4 15 -10 0 -5 9 -10 20 -10 13 0 18 -5 14 -15 -5 -11
0 -14 20 -13 18 2 24 7 23 20 -5 32 -57 76 -57 48 0 -5 7 -10 15 -10 8 0 15
-4 15 -10 0 -14 -10 -12 -50 11 -19 11 -27 18 -17 15 11 -3 17 0 17 10 0 12
-4 13 -21 4 -26 -14 -49 -6 -49 18 0 19 -47 52 -74 52 -18 0 -56 19 -69 35 -5
6 -7 3 -4 -6z"/>
<path d="M830 1118 c0 -8 7 -21 15 -28 19 -16 19 -1 0 24 -12 16 -15 17 -15 4z"/>
<path d="M860 1120 c0 -5 5 -10 11 -10 5 0 7 5 4 10 -3 6 -8 10 -11 10 -2 0
-4 -4 -4 -10z"/>
<path d="M934 1090 c0 -11 7 -20 16 -21 10 0 11 -2 3 -6 -7 -2 -13 -9 -13 -14
0 -4 7 -6 15 -3 16 7 21 34 5 34 -5 0 -7 7 -4 15 4 9 0 15 -8 15 -7 0 -14 -9
-14 -20z"/>
<path d="M1004 1051 c7 -19 19 -37 27 -39 12 -3 12 -2 0 6 -8 6 -14 23 -14 39
0 17 -6 30 -13 30 -9 0 -9 -8 0 -36z"/>
<path d="M1321 1054 c0 -11 3 -14 6 -6 3 7 2 16 -1 19 -3 4 -6 -2 -5 -13z"/>
<path d="M1125 1050 c3 -5 8 -10 11 -10 2 0 4 5 4 10 0 6 -5 10 -11 10 -5 0
-7 -4 -4 -10z"/>
<path d="M1231 1044 c0 -11 3 -14 6 -6 3 7 2 16 -1 19 -3 4 -6 -2 -5 -13z"/>
<path d="M880 1041 c0 -5 5 -13 10 -16 6 -3 10 -2 10 4 0 5 -4 13 -10 16 -5 3
-10 2 -10 -4z"/>
<path d="M1078 1043 c7 -3 16 -2 19 1 4 3 -2 6 -13 5 -11 0 -14 -3 -6 -6z"/>
<path d="M970 1030 c0 -6 7 -10 15 -10 8 0 15 2 15 4 0 2 -7 6 -15 10 -8 3
-15 1 -15 -4z"/>
<path d="M1135 1010 c2 -27 10 -33 12 -10 1 11 -2 22 -6 24 -4 3 -7 -4 -6 -14z"/>
<path d="M1066 990 c3 -14 10 -29 15 -34 14 -16 10 6 -7 34 l-15 25 7 -25z"/>
<path d="M1020 992 c0 -12 19 -26 26 -19 2 2 -2 10 -11 17 -9 8 -15 8 -15 2z"/>
<path d="M1148 953 c7 -3 16 -2 19 1 4 3 -2 6 -13 5 -11 0 -14 -3 -6 -6z"/>
<path d="M1323 950 c-13 -5 -23 -12 -23 -15 0 -10 44 2 48 13 4 14 4 14 -25 2z"/>
<path d="M1198 903 c7 -3 16 -2 19 1 4 3 -2 6 -13 5 -11 0 -14 -3 -6 -6z"/>
<path d="M982 868 c-1 -18 3 -40 8 -48 9 -13 11 -13 20 0 18 26 4 79 -20 80
-3 0 -7 -15 -8 -32z"/>
<path d="M1494 868 c-88 -17 -101 -22 -97 -38 5 -21 29 -17 82 13 25 13 45 17
70 12 28 -4 33 -3 21 5 -12 9 -6 11 26 7 48 -5 79 7 42 16 -29 8 -24 9 -144
-15z"/>
<path d="M1041 871 c-7 -5 -9 -11 -4 -14 5 -3 15 -2 22 2 7 5 9 11 4 14 -5 3
-15 2 -22 -2z"/>
<path d="M519 853 c-13 -16 -12 -17 4 -4 9 7 17 15 17 17 0 8 -8 3 -21 -13z"/>
<path d="M1338 852 c-4 -14 -27 -22 -102 -36 -53 -10 -100 -16 -103 -12 -4 3
0 6 7 6 7 0 11 3 8 6 -9 9 -91 -32 -113 -56 l-20 -22 35 7 c19 4 54 13 78 21
24 8 48 12 53 9 5 -4 9 -1 9 6 0 7 10 9 25 7 13 -3 23 -2 20 1 -2 4 21 7 50 7
30 0 56 2 58 4 2 3 7 20 10 38 7 33 -7 46 -15 14z m-31 -48 c-3 -3 -12 -4 -19
-1 -8 3 -5 6 6 6 11 1 17 -2 13 -5z"/>
<path d="M1510 840 c0 -5 7 -10 16 -10 8 0 12 5 9 10 -3 6 -10 10 -16 10 -5 0
-9 -4 -9 -10z"/>
<path d="M1720 825 c-7 -9 -8 -15 -2 -15 5 0 12 7 16 15 3 8 4 15 2 15 -2 0
-9 -7 -16 -15z"/>
<path d="M680 815 c0 -9 50 -34 54 -27 3 5 -8 13 -25 19 -16 6 -29 10 -29 8z"/>
<path d="M1510 811 c-14 -4 -29 -17 -35 -29 -5 -12 -18 -22 -28 -22 -16 0 -17
-2 -4 -14 13 -13 23 -12 78 4 35 11 72 20 82 20 9 0 17 7 17 16 0 10 -5 14
-16 10 -8 -3 -13 -2 -10 3 12 18 -36 25 -84 12z"/>
<path d="M956 774 c-9 -8 -20 -13 -25 -10 -13 8 -62 -15 -55 -25 9 -16 60 -10
76 9 32 37 35 58 4 26z"/>
<path d="M1518 736 c-46 -12 -78 -26 -78 -33 0 -18 20 -16 111 9 49 13 79 26
79 35 0 17 -17 15 -112 -11z"/>
<path d="M720 730 c-47 -9 -76 -19 -65 -21 22 -5 -119 -47 -200 -59 -47 -7
-48 -8 -12 -9 39 -1 47 -17 16 -31 -84 -39 -108 -65 -116 -128 -5 -36 -2 -45
26 -72 17 -17 31 -35 31 -40 0 -10 55 -18 87 -12 16 3 22 9 19 19 -3 8 4 33
15 55 12 23 21 57 22 77 0 20 6 43 12 51 7 8 16 26 20 40 6 22 4 20 -19 -9
-14 -19 -26 -29 -26 -22 0 7 -6 11 -14 8 -11 -5 -12 0 -3 24 7 17 17 27 24 25
7 -3 13 -1 13 3 0 5 10 7 22 3 17 -4 20 -2 15 12 -8 22 11 29 138 51 119 21
135 27 103 41 -17 8 -47 6 -108 -6z m-190 -190 c0 -10 -39 -44 -54 -46 -9 -1
-12 5 -9 17 6 22 23 36 23 20 0 -6 5 -11 11 -11 6 0 8 9 4 20 -5 15 -3 18 9
14 9 -3 16 -9 16 -14z"/>
<path d="M1675 740 c-13 -5 -14 -9 -5 -9 8 0 24 4 35 9 13 5 14 9 5 9 -8 0
-24 -4 -35 -9z"/>
<path d="M422 700 c0 -14 2 -19 5 -12 2 6 2 18 0 25 -3 6 -5 1 -5 -13z"/>
<path d="M1563 702 c-49 -14 -71 -32 -40 -32 24 0 107 32 107 41 0 11 -1 11
-67 -9z"/>
<path d="M1890 710 c0 -5 9 -10 20 -10 11 0 20 5 20 10 0 6 -9 10 -20 10 -11
0 -20 -4 -20 -10z"/>
<path d="M1736 670 c-65 -21 -75 -31 -77 -75 -1 -17 -3 -23 -6 -12 -2 9 -9 14
-15 10 -8 -4 -9 0 -5 11 11 28 -17 29 -98 5 -74 -21 -75 -23 -75 -55 0 -45 10
-70 21 -52 7 11 11 10 19 -2 7 -11 30 -15 87 -17 43 -1 90 -5 104 -8 14 -4 44
-2 66 4 34 9 43 18 66 64 27 52 32 82 21 125 -8 27 -28 28 -108 2z m74 -12
c-1 -7 -7 -26 -14 -43 l-13 -30 -8 27 c-4 16 -5 35 -1 43 7 18 36 20 36 3z"/>
<path d="M1335 650 c-3 -5 -1 -10 6 -10 6 0 9 -8 6 -20 -4 -16 0 -20 21 -19
33 1 135 37 108 38 -10 1 -37 -4 -59 -11 -36 -11 -41 -10 -58 10 -10 13 -20
18 -24 12z"/>
<path d="M1097 579 c7 -7 15 -10 18 -7 3 3 -2 9 -12 12 -14 6 -15 5 -6 -5z"/>
<path d="M901 419 c-18 -6 -30 -13 -27 -16 10 -10 -15 -33 -37 -33 -11 0 -35
-16 -53 -35 -57 -61 -57 -146 0 -190 28 -21 36 -23 71 -14 49 13 86 64 93 129
l4 45 -41 -42 c-23 -24 -44 -43 -46 -43 -23 0 59 196 85 204 13 3 13 4 0 4 -8
0 -30 -4 -49 -9z m-18 -241 c-2 -5 -17 -8 -34 -8 -16 0 -29 3 -29 8 0 4 15 7
34 7 19 0 32 -3 29 -7z"/>
<path d="M828 403 c6 -2 18 -2 25 0 6 3 1 5 -13 5 -14 0 -19 -2 -12 -5z"/>
</g>
</svg>
